<svg width="30" height="30" viewBox="0 0 30 30" fill="none" xmlns="http://www.w3.org/2000/svg">
<path d="M14.9975 9.22168C11.805 9.22168 9.21875 11.8092 9.21875 15.0004C9.21875 18.1929 11.805 20.7804 14.9975 20.7804C18.1875 20.7804 20.7762 18.1929 20.7762 15.0004C20.7762 11.8092 18.1875 9.22168 14.9975 9.22168ZM14.9975 18.7554C12.9237 18.7554 11.2425 17.0742 11.2425 15.0017C11.2425 12.9279 12.9237 11.2479 14.9975 11.2479C17.0712 11.2479 18.75 12.9279 18.75 15.0017C18.75 17.0742 17.0712 18.7554 14.9975 18.7554Z" fill="#F4F4F4"/>
<path d="M21.0077 10.3561C21.7519 10.3561 22.3552 9.75284 22.3552 9.00863C22.3552 8.26443 21.7519 7.66113 21.0077 7.66113C20.2635 7.66113 19.6602 8.26443 19.6602 9.00863C19.6602 9.75284 20.2635 10.3561 21.0077 10.3561Z" fill="#F4F4F4"/>
<path d="M25.6677 7.63836C25.0814 6.12711 23.8877 4.93211 22.3764 4.34836C21.5027 4.01961 20.5789 3.84336 19.6439 3.82336C18.4402 3.77086 18.0589 3.75586 15.0064 3.75586C11.9539 3.75586 11.5627 3.75586 10.3689 3.82336C9.43641 3.84211 8.51266 4.01836 7.63891 4.34836C6.12641 4.93211 4.93266 6.12711 4.34766 7.63836C4.01891 8.51336 3.84266 9.43586 3.82391 10.3709C3.77016 11.5734 3.75391 11.9546 3.75391 15.0084C3.75391 18.0609 3.75391 18.4496 3.82391 19.6459C3.84266 20.5809 4.01891 21.5034 4.34766 22.3796C4.93391 23.8896 6.12766 25.0846 7.64016 25.6696C8.51016 26.0096 9.43391 26.2021 10.3714 26.2321C11.5752 26.2846 11.9564 26.3009 15.0089 26.3009C18.0614 26.3009 18.4527 26.3009 19.6464 26.2321C20.5802 26.2134 21.5039 26.0359 22.3789 25.7084C23.8902 25.1221 25.0839 23.9284 25.6702 22.4171C25.9989 21.5421 26.1752 20.6196 26.1939 19.6846C26.2477 18.4821 26.2639 18.1009 26.2639 15.0471C26.2639 11.9934 26.2639 11.6059 26.1939 10.4096C26.1777 9.46211 26.0027 8.52336 25.6677 7.63836ZM24.1452 19.5534C24.1364 20.2734 24.0064 20.9871 23.7564 21.6634C23.3752 22.6471 22.5989 23.4246 21.6164 23.8021C20.9477 24.0509 20.2427 24.1809 19.5289 24.1909C18.3414 24.2459 18.0064 24.2596 14.9614 24.2596C11.9139 24.2596 11.6027 24.2596 10.3927 24.1909C9.68141 24.1821 8.97391 24.0509 8.30641 23.8021C7.32016 23.4259 6.53891 22.6484 6.15766 21.6634C5.91266 20.9959 5.78016 20.2896 5.76891 19.5771C5.71516 18.3896 5.70266 18.0546 5.70266 15.0096C5.70266 11.9634 5.70266 11.6521 5.76891 10.4409C5.77766 9.72086 5.90766 9.00836 6.15766 8.33211C6.53891 7.34586 7.32016 6.56961 8.30641 6.19211C8.97391 5.94461 9.68141 5.81336 10.3927 5.80336C11.5814 5.74961 11.9152 5.73461 14.9614 5.73461C18.0077 5.73461 18.3202 5.73461 19.5289 5.80336C20.2427 5.81211 20.9477 5.94336 21.6164 6.19211C22.5989 6.57086 23.3752 7.34836 23.7564 8.33211C24.0014 8.99961 24.1339 9.70586 24.1452 10.4184C24.1989 11.6071 24.2127 11.9409 24.2127 14.9871C24.2127 18.0321 24.2127 18.3596 24.1589 19.5546H24.1452V19.5534Z" fill="#F4F4F4"/>
</svg>
